\beamer@endinputifotherversion {3.36pt}
\beamer@sectionintoc {1}{Introduction: QEC with cat states}{2}{0}{1}
\beamer@sectionintoc {2}{Asymmetric JRM}{16}{0}{2}
\beamer@sectionintoc {3}{Coupling term amplitude}{21}{0}{3}
