\relax 
\providecommand\hyper@newdestlabel[2]{}
\providecommand\HyperFirstAtBeginDocument{\AtBeginDocument}
\HyperFirstAtBeginDocument{\ifx\hyper@anchor\@undefined
\global\let\oldcontentsline\contentsline
\gdef\contentsline#1#2#3#4{\oldcontentsline{#1}{#2}{#3}}
\global\let\oldnewlabel\newlabel
\gdef\newlabel#1#2{\newlabelxx{#1}#2}
\gdef\newlabelxx#1#2#3#4#5#6{\oldnewlabel{#1}{{#2}{#3}}}
\AtEndDocument{\ifx\hyper@anchor\@undefined
\let\contentsline\oldcontentsline
\let\newlabel\oldnewlabel
\fi}
\fi}
\global\let\hyper@last\relax 
\gdef\HyperFirstAtBeginDocument#1{#1}
\providecommand\HyField@AuxAddToFields[1]{}
\providecommand\HyField@AuxAddToCoFields[2]{}
\@writefile{toc}{\beamer@endinputifotherversion {3.36pt}}
\@writefile{nav}{\beamer@endinputifotherversion {3.36pt}}
\@writefile{nav}{\headcommand {\slideentry {0}{0}{1}{1/1}{}{0}}}
\@writefile{nav}{\headcommand {\beamer@framepages {1}{1}}}
\@writefile{toc}{\beamer@sectionintoc {1}{Introduction: QEC with cat states}{2}{0}{1}}
\@writefile{nav}{\headcommand {\sectionentry {1}{Introduction: QEC with cat states}{2}{Introduction: QEC with cat states}{0}}}
\@writefile{nav}{\headcommand {\beamer@sectionpages {1}{1}}}
\@writefile{nav}{\headcommand {\beamer@subsectionpages {1}{1}}}
\@writefile{nav}{\headcommand {\slideentry {1}{0}{1}{2/2}{}{0}}}
\@writefile{nav}{\headcommand {\beamer@framepages {2}{2}}}
\@writefile{nav}{\headcommand {\slideentry {1}{0}{2}{3/3}{}{0}}}
\@writefile{nav}{\headcommand {\beamer@framepages {3}{3}}}
\@writefile{nav}{\headcommand {\slideentry {1}{0}{3}{4/11}{}{0}}}
\@writefile{nav}{\headcommand {\beamer@framepages {4}{11}}}
\@writefile{nav}{\headcommand {\slideentry {1}{0}{4}{12/12}{}{0}}}
\@writefile{nav}{\headcommand {\beamer@framepages {12}{12}}}
\@writefile{nav}{\headcommand {\slideentry {1}{0}{5}{13/13}{}{0}}}
\@writefile{nav}{\headcommand {\beamer@framepages {13}{13}}}
\@writefile{nav}{\headcommand {\slideentry {1}{0}{6}{14/14}{}{0}}}
\@writefile{nav}{\headcommand {\beamer@framepages {14}{14}}}
\@writefile{nav}{\headcommand {\slideentry {1}{0}{7}{15/15}{}{0}}}
\@writefile{nav}{\headcommand {\beamer@framepages {15}{15}}}
\@writefile{toc}{\beamer@sectionintoc {2}{Asymmetric JRM}{16}{0}{2}}
\@writefile{nav}{\headcommand {\sectionentry {2}{Asymmetric JRM}{16}{Asymmetric JRM}{0}}}
\@writefile{nav}{\headcommand {\beamer@sectionpages {2}{15}}}
\@writefile{nav}{\headcommand {\beamer@subsectionpages {2}{15}}}
\@writefile{nav}{\headcommand {\slideentry {2}{0}{1}{16/16}{}{0}}}
\@writefile{nav}{\headcommand {\beamer@framepages {16}{16}}}
\@writefile{nav}{\headcommand {\slideentry {2}{0}{2}{17/17}{}{0}}}
\@writefile{nav}{\headcommand {\beamer@framepages {17}{17}}}
\@writefile{nav}{\headcommand {\slideentry {2}{0}{3}{18/20}{}{0}}}
\@writefile{nav}{\headcommand {\beamer@framepages {18}{20}}}
\@writefile{toc}{\beamer@sectionintoc {3}{Coupling term amplitude}{21}{0}{3}}
\@writefile{nav}{\headcommand {\sectionentry {3}{Coupling term amplitude}{21}{Coupling term amplitude}{0}}}
\@writefile{nav}{\headcommand {\beamer@sectionpages {16}{20}}}
\@writefile{nav}{\headcommand {\beamer@subsectionpages {16}{20}}}
\@writefile{nav}{\headcommand {\slideentry {3}{0}{1}{21/21}{}{0}}}
\@writefile{nav}{\headcommand {\beamer@framepages {21}{21}}}
\@writefile{nav}{\headcommand {\slideentry {3}{0}{2}{22/23}{}{0}}}
\@writefile{nav}{\headcommand {\beamer@framepages {22}{23}}}
\@writefile{nav}{\headcommand {\slideentry {3}{0}{3}{24/28}{}{0}}}
\@writefile{nav}{\headcommand {\beamer@framepages {24}{28}}}
\@writefile{nav}{\headcommand {\slideentry {3}{0}{4}{29/29}{}{0}}}
\@writefile{nav}{\headcommand {\beamer@framepages {29}{29}}}
\@writefile{nav}{\headcommand {\slideentry {3}{0}{5}{30/30}{}{0}}}
\@writefile{nav}{\headcommand {\beamer@framepages {30}{30}}}
\@writefile{nav}{\headcommand {\slideentry {3}{0}{6}{31/31}{}{0}}}
\@writefile{nav}{\headcommand {\beamer@framepages {31}{31}}}
\@writefile{nav}{\headcommand {\beamer@partpages {1}{31}}}
\@writefile{nav}{\headcommand {\beamer@subsectionpages {21}{31}}}
\@writefile{nav}{\headcommand {\beamer@sectionpages {21}{31}}}
\@writefile{nav}{\headcommand {\beamer@documentpages {31}}}
\@writefile{nav}{\headcommand {\def \inserttotalframenumber {13}}}
